Calculate zooplankton dry weight from mean length — calc_zooplankton_dry_weight • SHARK4R
…
# Calculate dry weight from "Length (mean)" and return only the new rows
calc_zooplankton_dry_weight(
  zoo_shark,
  append = FALSE
)
#> # A tibble: 463 × 109
#>    delivery_datatype check_status_sv data_checked_by_sv visit_year visit_month
#>    <chr>             <chr>           <chr>                   <dbl>       <dbl>
#>  1 Zooplankton       Klar            Leverantör               2023          12
#>  2 Zooplankton       Klar            Leverantör               2023          12
#>  3 Zooplankton       Klar            Leverantör               2023          12
#>  4 Zooplankton       Klar            Leverantör               2023          12
#>  5 Zooplankton       Klar            Leverantör               2023          12
#>  6 Zooplankton       Klar            Leverantör               2023          12
#>  7 Zooplankton       Klar            Leverantör               2023          12
#>  8 Zooplankton       Klar            Leverantör               2023          12
#>  9 Zooplankton       Klar            Leverantör               2023          12
#> 10 Zooplankton       Klar            Leverantör               2023          12
#> # ℹ 453 more rows
#> # ℹ 104 more variables: station_name <chr>, reported_station_name <chr>,
#> #   sample_location_id <dbl>, station_id <dbl>, sample_project_name_sv <chr>,
#> #   sample_orderer_name_sv <chr>, platform_code <chr>, visit_id <dbl>,
#> #   expedition_id <dbl>, shark_sample_id_md5 <chr>, sample_date <date>,
#> #   sample_time <time>, sample_latitude_dm <chr>, sample_longitude_dm <chr>,
#> #   sample_latitude_dd <dbl>, sample_longitude_dd <dbl>, …
…
