Retrieve hierarchical taxonomy data from WoRMS — get_worms_taxonomy_tree • SHARK4R
…
# Retrieve hierarchy including species-level descendants
get_worms_taxonomy_tree(
  aphia_ids = c(109604, 376667),
  add_descendants = TRUE,
  verbose = FALSE
)
#> # A tibble: 86 × 28
#>    AphiaID url        scientificname authority status unacceptreason taxonRankID
#>      <int> <chr>      <chr>          <chr>     <chr>  <chr>                <int>
#>  1       7 https://w… Chromista      NA        accep… NA                      10
#>  2  582419 https://w… Harosa         NA        accep… NA                      20
#>  3  536209 https://w… Alveolata      Cavalier… accep… NA                      25
#>  4  450030 https://w… Myzozoa        Cavalier… accep… NA                      30
#>  5  562620 https://w… Dinozoa        NA        accep… NA                      40
#>  6  146203 https://w… Dinoflagellata NA        accep… NA                      45
#>  7   19542 https://w… Dinophyceae    Fritsch,… accep… NA                      60
#>  8 1732560 https://w… Dinophysales   Kofoid, … accep… NA                     100
#>  9  231772 https://w… Dinophysaceae  Bütschli… accep… NA                     140
#> 10  109462 https://w… Dinophysis     Ehrenber… accep… NA                     180
#> # ℹ 76 more rows
#> # ℹ 21 more variables: rank <chr>, valid_AphiaID <int>, valid_name <chr>,
#> #   valid_authority <chr>, parentNameUsageID <int>, originalNameUsageID <int>,
#> #   kingdom <chr>, phylum <chr>, class <chr>, order <chr>, family <chr>,
#> #   genus <chr>, citation <chr>, lsid <chr>, isMarine <int>, isBrackish <int>,
#> #   isFreshwater <int>, isTerrestrial <int>, isExtinct <int>, match_type <chr>,
#> #   modified <chr>
…
