Get a delivery template for a SHARK datatype — get_delivery_template • SHARK4R
…
# Bacterioplankton production
prod <- get_delivery_template("Bacterioplankton",
                              bacterioplankton_subtype = "production")

# Phytoplankton template
phyto <- get_delivery_template("Phytoplankton")

# Phytoplankton column explanation (sheet number 3)
phyto_column_explanation <- get_delivery_template("Phytoplankton",
                                                  sheet = 3,
                                                  header_row = 4,
                                                  skip = 3)

print(phyto_column_explanation)
#> # A tibble: 68 × 6
#>    ...1  ...2  `Förklaring/ Svenskt namn`  `Fältnamn/ Kort-namn` Enhet 
#>    <chr> <lgl> <chr>                       <chr>                 <chr> 
#>  1 NA    NA    Förklaring/ Svenskt namn    Fältnamn/ Kort-namn   Enhet 
#>  2 *     NA    År (YYYY)                   MYEAR                 YYYY  
#>  3 NA    NA    NA                          NA                    NA    
#>  4 *     NA    Stationsnamn (text)         STATN                 text  
#>  5 NA    NA    ÖvervakningsstationsID      STATION_ID            nnnnnn
#>  6 NA    NA    ProvplatsID                 SITE_ID               nnnnnn
#>  7 *     NA    Projekt (kod)               PROJ                  kod   
#>  8 *     NA    Beställare (kod)            ORDERER               kod   
#>  9 *     NA    Provtagningsplattform (kod) SHIPC                 kod   
#> 10 NA    NA    Expeditionsnummer (text)    CRUISE_NO             text  
#> # ℹ 58 more rows
#> # ℹ 1 more variable: `Kommentar/ Beskrivning` <chr>
…
