Quality Control of SHARK Data • SHARK4R
…
# Print the name of the selected dataset
print(selected_dataset)

## [1] "SHARK_Chlorophyll_1985_1989_SMHI_version_2023-04-27.zip"

Download the selected dataset as a data frame:

chlorophyll_data <- get_shark_datasets(selected_dataset,
                                       save_dir = tempdir(),
                                       return_df = TRUE,
                                       verbose = FALSE)

tibble(chlorophyll_data)

## # A tibble: 80 × 73
##    source delivery_datatype check_status_sv data_checked_by_sv visit_year
##     <dbl> <chr>             <chr>           <chr>                   <dbl>
##  1      1 Chlorophyll       Klar            Leverantör               1989
##  2      1 Chlorophyll       Klar            Leverantör               1989
##  3      1 Chlorophyll       Klar            Leverantör               1985
##  4      1 Chlorophyll       Klar            Leverantör               1989
##  5      1 Chlorophyll       Klar            Leverantör               1989
##  6      1 Chlorophyll       Klar            Leverantör               1989
##  7      1 Chlorophyll       Klar            Leverantör               1989
##  8      1 Chlorophyll       Klar            Leverantör               1989
##  9      1 Chlorophyll       Klar            Leverantör               1989
## 10      1 Chlorophyll       Klar            Leverantör               1989
## # ℹ 70 more rows
## # ℹ 68 more variables: visit_month <dbl>, station_name <chr>,
## #   reported_station_name <chr>, sample_location_id <dbl>, station_id <dbl>,
## #   sample_project_name_en <chr>, sample_orderer_name_en <chr>,
## #   platform_code <chr>, visit_id <dbl>, expedition_id <lgl>,
## #   shark_sample_id_md5 <chr>, sample_date <date>, sample_time <time>,
## #   sample_enddate <lgl>, sample_endtime <lgl>, sample_latitude_dm <chr>, …
…
Step 1: Check Required Fields

Validate mandatory fields:

Global fields: check_datatype()

Datatype-specific fields:
check_fields() with optional
field_definitions

check_fields(data = chlorophyll_data, datatype = "Chlorophyll")

## # A tibble: 1,195 × 4
##    level field                           row message                            
##    <chr> <chr>                         <int> <chr>                              
##  1 error sample_project_name_sv           NA Required field sample_project_name…
##  2 error sample_orderer_name_sv           NA Required field sample_orderer_name…
##  3 error sampling_laboratory_name_sv      NA Required field sampling_laboratory…
##  4 error analytical_laboratory_name_sv    NA Required field analytical_laborato…
##  5 error reporting_institute_name_sv      NA Required field reporting_institute…
##  6 error sample_enddate                    1 Empty value for required field sam…
##  7 error sample_enddate                    2 Empty value for required field sam…
##  8 error sample_enddate                    3 Empty value for required field sam…
##  9 error sample_enddate                    4 Empty value for required field sam…
## 10 error sample_enddate                    5 Empty value for required field sam…
## # ℹ 1,185 more rows
…
Step 4: Depth Checks

Verify plausibility and consistency of depth values:

check_depth(data = chlorophyll_data) # default columns: min/max depth

## # A tibble: 2 × 4
##   level     row field              message                                      
##   <chr>   <int> <chr>              <chr>                                        
## 1 warning    17 sample_max_depth_m Depth value (20) is greater than the value f…
## 2 warning    80 sample_max_depth_m Depth value (20) is greater than the value f…

check_depth(data = chlorophyll_data, "water_depth_m")

## # A tibble: 57 × 4
##    level     row field         message                                          
##    <chr>   <int> <chr>         <chr>                                            
##  1 warning     2 water_depth_m Depth value (78) is greater than the value found…
##  2 warning     3 water_depth_m Depth value (78) is greater than the value found…
##  3 warning     4 water_depth_m Depth value (637) is greater than the value foun…
##  4 warning     6 water_depth_m Depth value (86) is greater than the value found…
##  5 warning     8 water_depth_m Depth value (25) is greater than the value found…
##  6 warning     9 water_depth_m Depth value (41) is greater than the value found…
##  7 warning    10 water_depth_m Depth value (90) is greater than the value found…
##  8 warning    11 water_depth_m Depth value (74) is greater than the value found…
##  9 warning    13 water_depth_m Depth value (465) is greater than the value foun…
## 10 warning    14 water_depth_m Depth value (465) is greater than the value foun…
## # ℹ 47 more rows
…
