Retrieve Data From SHARK • SHARK4R
…
Data can be retrieved with the same filtering options available in SHARK. To see the available filtering
options, please refer to get_shark_options() and the
information below.

# Retrieve chlorophyll data for April to June from 2019 to 2020
shark_data <- get_shark_data(fromYear = 2019, 
                             toYear = 2020,
                             months = c(4, 5, 6), 
                             dataTypes = c("Chlorophyll"),
                             verbose = FALSE)

# Print data
print(shark_data)

## # A tibble: 179 × 72
##    delivery_datatype check_status_sv data_checked_by_sv visit_year visit_month
##    <chr>             <chr>           <chr>                   <dbl>       <dbl>
##  1 Chlorophyll       Klar            Leverantör               2020           6
##  2 Chlorophyll       Klar            Leverantör               2020           6
##  3 Chlorophyll       Klar            Leverantör               2020           6
##  4 Chlorophyll       Klar            Leverantör               2020           6
##  5 Chlorophyll       Klar            Leverantör               2020           6
##  6 Chlorophyll       Klar            Leverantör               2020           6
##  7 Chlorophyll       Klar            Leverantör               2020           6
##  8 Chlorophyll       Klar            Leverantör               2020           6
##  9 Chlorophyll       Klar            Leverantör               2020           6
## 10 Chlorophyll       Klar            Leverantör               2020           6
## # ℹ 169 more rows
## # ℹ 67 more variables: station_name <chr>, reported_station_name <chr>,
## #   sample_location_id <dbl>, station_id <dbl>, sample_project_name_sv <lgl>,
## #   sample_orderer_name_sv <lgl>, visit_id <dbl>, visit_date <lgl>,
## #   shark_sample_id_md5 <chr>, sample_date <date>, sample_time <time>,
## #   sample_enddate <lgl>, sample_endtime <lgl>, sample_latitude_dm <chr>,
## #   sample_longitude_dm <chr>, sample_latitude_dd <dbl>, …
…
