…
# Subset the random sample
shark_data_subset <- shark_data %>%
  filter(shark_sample_id_md5 == sample)

# Assign groups by providing both scientific name and Aphia ID
plankton_groups <- assign_phytoplankton_group(
  scientific_names = shark_data_subset$scientific_name,
  aphia_ids = shark_data_subset$aphia_id,
  verbose = FALSE)

# Print result
tibble(distinct(plankton_groups))
```

    ## # A tibble: 23 × 2
    ##    scientific_name      plankton_group 
    ##    <chr>                <chr>          
    ##  1 Pauliella taeniata   Diatoms        
    ##  2 Amylax triacantha    Dinoflagellates
    ##  3 Aphanocapsa          Cyanobacteria  
    ##  4 Aphanothece          Cyanobacteria  
    ##  5 Chaetoceros similis  Diatoms        
    ##  6 Dinobryon balticum   Other          
    ##  7 Dinophysis acuminata Dinoflagellates
    ##  8 Dinophysis norvegica Dinoflagellates
    ##  9 Gymnodinium          Dinoflagellates
    ## 10 Protodinium simplex  Other          
    ## # ℹ 13 more rows
…
