Retrieve Taxonomic Data From Dyntaxa • SHARK4R
…
# Retrieve taxonomy reports for phytoplankton between 2019 and 2020
shark_taxon <- get_shark_data(tableView = "report_taxon",
                              fromYear = 2019,
                              toYear = 2020,
                              dataTypes = "Phytoplankton",
                              verbose = FALSE)

# Print data
print(shark_taxon)

## # A tibble: 701 × 6
##    reported_scientific_name  scientific_name dyntaxa_id aphia_id taxon_hierarchy
##    <chr>                     <chr>                <dbl>    <dbl> <chr>          
##  1 Acanthoceras zachariasii  Acanthoceras z…     264148   178990 Chromista - Sa…
##  2 Acanthoica quattrospina   Acanthoica qua…     236952   235802 Chromista - Ha…
##  3 Acanthostomella           Acanthostomella    1010638       NA Chromista - Sa…
##  4 Acanthostomella norvegica Acanthostomell…     238502   183556 Chromista - Sa…
##  5 Achnanthes                Achnanthes         1010466   149191 Chromista - Sa…
##  6 Actinastrum hantzschii    Actinastrum ha…     238839   160543 Plantae - Viri…
##  7 Actinocyclus              Actinocyclus       1010407   148944 Chromista - Sa…
##  8 Actinocyclus normanii     Actinocyclus n…     237433   148945 Chromista - Sa…
##  9 Actinocyclus octonarius   Actinocyclus o…     237434   149164 Chromista - Sa…
## 10 Actinocyclus octonarius … Actinocyclus o…     248668   162770 Chromista - Sa…
## # ℹ 691 more rows
## # ℹ 1 more variable: counted_rows <dbl>

# Retrieve all phytoplankton data from July 2015
shark_data <- get_shark_data(tableView = "sharkdata_phytoplankton",
                             fromYear = 2015, 
                             toYear = 2015,
                             months = 7,
                             dataTypes = c("Phytoplankton"),
                             verbose = FALSE)

# Print data
print(shark_data)

## # A tibble: 12,519 × 138
##    delivery_datatype check_status_sv data_checked_by_sv visit_year visit_month
##    <chr>             <chr>           <chr>                   <dbl>       <dbl>
##  1 Phytoplankton     Klar            Leverantör               2015           7
##  2 Phytoplankton     Klar            Leverantör               2015           7
##  3 Phytoplankton     Klar            Leverantör               2015           7
##  4 Phytoplankton     Klar            Leverantör               2015           7
##  5 Phytoplankton     Klar            Leverantör               2015           7
##  6 Phytoplankton     Klar            Leverantör               2015           7
##  7 Phytoplankton     Klar            Leverantör               2015           7
##  8 Phytoplankton     Klar            Leverantör               2015           7
##  9 Phytoplankton     Klar            Leverantör               2015           7
## 10 Phytoplankton     Klar            Leverantör               2015           7
## # ℹ 12,509 more rows
## # ℹ 133 more variables: station_name <chr>, reported_station_name <chr>,
## #   sample_location_id <dbl>, station_id <dbl>, sample_project_name_sv <chr>,
## #   sample_orderer_name_sv <chr>, platform_code <chr>, expedition_id <dbl>,
## #   shark_sample_id_md5 <chr>, sample_date <date>, sample_time <time>,
## #   sample_latitude_dm <chr>, sample_longitude_dm <chr>,
## #   sample_latitude_dd <dbl>, sample_longitude_dd <dbl>, …
…
If the taxonomic data downloaded from SHARK are outdated, they can be
updated to the latest Dyntaxa information using SHARK4R.
Alternatively, data can be retrieved from WoRMS. For details, see the WoRMS Tutorial.

# Update taxonomy information for the retrieved phytoplankton data
updated_taxonomy <- update_dyntaxa_taxonomy(
  dyntaxa_ids = shark_data$dyntaxa_id,
  subscription_key = dyntaxa_key,
  verbose = FALSE)

# Print the updated taxonomy data
print(updated_taxonomy)

## # A tibble: 12,519 × 10
##    dyntaxa_id scientific_name taxon_kingdom taxon_phylum taxon_class taxon_order
##         <dbl> <chr>           <chr>         <chr>        <chr>       <chr>      
##  1     237393 Aulacoseira am… Chromista     Gyrista      Coscinodis… Aulacoseir…
##  2     237398 Aulacoseira it… Chromista     Gyrista      Coscinodis… Aulacoseir…
##  3     237398 Aulacoseira it… Chromista     Gyrista      Coscinodis… Aulacoseir…
##  4     238026 Diatoma tenuis  Chromista     Gyrista      Bacillario… Rhabdonema…
##  5     237039 Dinobryon bava… Chromista     Gyrista      Chrysophyc… Ochromonad…
##  6     237978 Tabellaria flo… Chromista     Gyrista      Bacillario… Rhabdonema…
##  7     237978 Tabellaria flo… Chromista     Gyrista      Bacillario… Rhabdonema…
##  8     237978 Tabellaria flo… Chromista     Gyrista      Bacillario… Rhabdonema…
##  9    1010525 Cryptomonas     Chromista     Cryptophyta  Cryptophyc… Cryptomona…
## 10    1010525 Cryptomonas     Chromista     Cryptophyta  Cryptophyc… Cryptomona…
## # ℹ 12,509 more rows
## # ℹ 4 more variables: taxon_family <chr>, taxon_genus <chr>,
## #   taxon_species <chr>, taxon_hierarchy <chr>
…
# Print the taxonomy table as a tibble
tibble(taxonomy_table)

## # A tibble: 677 × 16
##    taxonId        acceptedNameUsageID parentNameUsageID scientificName taxonRank
##    <chr>          <chr>               <chr>             <chr>          <chr>    
##  1 urn:lsid:dynt… urn:lsid:dyntaxa.s… urn:lsid:dyntaxa… Cosmarium      genus    
##  2 urn:lsid:dynt… urn:lsid:dyntaxa.s… urn:lsid:dyntaxa… Pavlova        genus    
##  3 urn:lsid:dynt… urn:lsid:dyntaxa.s… urn:lsid:dyntaxa… Pyramimonas v… species  
##  4 urn:lsid:dynt… urn:lsid:dyntaxa.s… urn:lsid:dyntaxa… Oxytoxum grac… species  
##  5 urn:lsid:dynt… urn:lsid:dyntaxa.s… urn:lsid:dyntaxa… Desmodesmus a… species  
##  6 urn:lsid:dynt… urn:lsid:dyntaxa.s… urn:lsid:dyntaxa… Aulacoseira i… subspeci…
##  7 urn:lsid:dynt… urn:lsid:dyntaxa.s… urn:lsid:dyntaxa… Protoperidini… species  
##  8 urn:lsid:dynt… urn:lsid:dyntaxa.s… urn:lsid:dyntaxa… Dactyliosolen… species  
##  9 urn:lsid:dynt… urn:lsid:dyntaxa.s… urn:lsid:dyntaxa… Planktosphaer… species  
## 10 urn:lsid:dynt… urn:lsid:dyntaxa.s… urn:lsid:dyntaxa… Monoraphidium… species  
## # ℹ 667 more rows
## # ℹ 11 more variables: scientificNameAuthorship <chr>, taxonomicStatus <chr>,
## #   nomenclaturalStatus <chr>, taxonRemarks <chr>, kingdom <chr>, phylum <chr>,
## #   class <chr>, order <chr>, family <chr>, genus <chr>, species <chr>
…
