Retrieve Taxonomic Data From Dyntaxa • SHARK4R
…
## Warning: `get_shark_table()` was deprecated in SHARK4R 0.1.1.
## ℹ Please use `get_shark_data()` instead.
## This warning is displayed once every 8 hours.
## Call `lifecycle::last_lifecycle_warnings()` to see where this warning was
## generated.

##   |                                                                              |                                                                      |   0%

# Print data
print(shark_taxon)

## # A tibble: 200 × 6
##    reported_scientific_name  scientific_name dyntaxa_id aphia_id taxon_hierarchy
##    <chr>                     <chr>           <chr>      <chr>    <chr>          
##  1 Acanthoceras zachariasii  Acanthoceras z… 264148     178990   Chromista - Sa…
##  2 Acanthoica quattrospina   Acanthoica qua… 236952     235802   Chromista - Ha…
##  3 Acanthostomella           Acanthostomella 1010638    NA       Chromista - Sa…
##  4 Acanthostomella norvegica Acanthostomell… 238502     183556   Chromista - Sa…
##  5 Achnanthes                Achnanthes      1010466    149191   Chromista - Sa…
##  6 Actinastrum hantzschii    Actinastrum ha… 238839     160543   Plantae - Viri…
##  7 Actinocyclus              Actinocyclus    1010407    148944   Chromista - Sa…
##  8 Actinocyclus normanii     Actinocyclus n… 237433     148945   Chromista - Sa…
##  9 Actinocyclus octonarius   Actinocyclus o… 237434     149164   Chromista - Sa…
## 10 Actinocyclus octonarius … Actinocyclus o… 248668     162770   Chromista - Sa…
## # ℹ 190 more rows
## # ℹ 1 more variable: counted_rows <int>
…
# Retrieve complete taxonomic table (including parents and all descendants below genus level)
taxonomy_table <- construct_dyntaxa_table(parents_id, 
                                          dyntaxa_key, 
                                          shark_output = TRUE, 
                                          recommended_only = FALSE, 
                                          add_genus_children = TRUE,
                                          verbose = FALSE)

# Print the taxonomy table as a tibble
tibble(taxonomy_table)

## # A tibble: 391 × 12
##    taxon_id name    rank  author Kingdom Phylum Class Order Family Genus Species
##       <int> <chr>   <chr> <chr>  <chr>   <chr>  <chr> <chr> <chr>  <chr> <chr>  
##  1  5000045 Plantae King… Haeck… Plantae NA     NA    NA    NA     NA    NA     
##  2  4000126 Conjug… Class Engler Plantae NA     Conj… NA    NA     NA    NA     
##  3  6008733 Desmid… Order Bessey Plantae NA     Conj… Desm… NA     NA    NA     
##  4  2003281 Desmid… Fami… Ralfs  Plantae NA     Conj… Desm… Desmi… NA    NA     
##  5  1010708 Cosmar… Genus Corda… Plantae NA     Conj… Desm… Desmi… Cosm… NA     
##  6    38895 Cosmar… Spec… Bréb.… Plantae NA     Conj… Desm… Desmi… Cosm… Cosmar…
##  7    38896 Cosmar… Spec… Meneg… Plantae NA     Conj… Desm… Desmi… Cosm… Cosmar…
##  8    38897 Cosmar… Spec… Corda… Plantae NA     Conj… Desm… Desmi… Cosm… Cosmar…
##  9    38898 Cosmar… Spec… Bréb.… Plantae NA     Conj… Desm… Desmi… Cosm… Cosmar…
## 10    38899 Cosmar… Spec… Elfvi… Plantae NA     Conj… Desm… Desmi… Cosm… Cosmar…
## # ℹ 381 more rows
## # ℹ 1 more variable: hierarchy <chr>
…
