…
``` r
# Retrieve taxonomy reports for phytoplankton between 2019 and 2020
shark_taxon <- get_shark_data(tableView = "report_taxon",
                              fromYear = 2019,
                              toYear = 2020,
                              dataTypes = "Phytoplankton",
                              verbose = FALSE)

# Print data
print(shark_taxon)
```

    ## # A tibble: 663 × 6
    ##    reported_scientific_name  scientific_name dyntaxa_id aphia_id taxon_hierarchy
    ##    <chr>                     <chr>                <dbl>    <dbl> <chr>          
    ##  1 Acanthoceras zachariasii  Acanthoceras z…     264148   178990 Chromista - Sa…
    ##  2 Acanthoica quattrospina   Acanthoica qua…     236952   235802 Chromista - Ha…
    ##  3 Acanthostomella           Acanthostomella    1010638       NA Chromista - Sa…
    ##  4 Acanthostomella norvegica Acanthostomell…     238502   183556 Chromista - Sa…
    ##  5 Achnanthes                Achnanthes         1010466   149191 Chromista - Sa…
    ##  6 Actinastrum hantzschii    Actinastrum ha…     238839   160543 Plantae - Viri…
    ##  7 Actinocyclus              Actinocyclus       1010407   148944 Chromista - Sa…
    ##  8 Actinocyclus normanii     Actinocyclus n…     237433   148945 Chromista - Sa…
    ##  9 Actinocyclus octonarius   Actinocyclus o…     237434   149164 Chromista - Sa…
    ## 10 Actinocyclus octonarius … Actinocyclus o…     248668   162770 Chromista - Sa…
    ## # ℹ 653 more rows
    ## # ℹ 1 more variable: counted_rows <dbl>

``` r
# Retrieve all phytoplankton data from July 2015
shark_data <- get_shark_data(tableView = "sharkdata_phytoplankton",
                             fromYear = 2015, 
                             toYear = 2015,
                             months = 7,
                             dataTypes = "Phytoplankton",
                             verbose = FALSE)

# Print data
print(shark_data)
```

    ## # A tibble: 1,627 × 114
    ##    delivery_datatype check_status_sv data_checked_by_sv visit_year visit_month
    ##    <chr>             <chr>           <chr>                   <dbl>       <dbl>
    ##  1 Phytoplankton     Klar            Leverantör               2015           7
    ##  2 Phytoplankton     Klar            Leverantör               2015           7
    ##  3 Phytoplankton     Klar            Leverantör               2015           7
    ##  4 Phytoplankton     Klar            Leverantör               2015           7
    ##  5 Phytoplankton     Klar            Leverantör               2015           7
    ##  6 Phytoplankton     Klar            Leverantör               2015           7
    ##  7 Phytoplankton     Klar            Leverantör               2015           7
    ##  8 Phytoplankton     Klar            Leverantör               2015           7
    ##  9 Phytoplankton     Klar            Leverantör               2015           7
    ## 10 Phytoplankton     Klar            Leverantör               2015           7
    ## # ℹ 1,617 more rows
    ## # ℹ 109 more variables: station_name <chr>, reported_station_name <chr>,
    ## #   sample_location_id <dbl>, station_id <dbl>, sample_project_name_sv <chr>,
    ## #   sample_orderer_name_sv <chr>, platform_code <chr>, expedition_id <dbl>,
    ## #   shark_sample_id_md5 <chr>, sample_date <date>, sample_time <time>,
    ## #   sample_latitude_dm <chr>, sample_longitude_dm <chr>,
    ## #   sample_latitude_dd <dbl>, sample_longitude_dd <dbl>, …
…
``` r
# Update taxonomy information for the retrieved phytoplankton data
updated_taxonomy <- update_dyntaxa_taxonomy(
  dyntaxa_ids = shark_data$dyntaxa_id,
  subscription_key = dyntaxa_key,
  verbose = FALSE)

# Print the updated taxonomy data
print(updated_taxonomy)
```

    ## # A tibble: 1,627 × 10
    ##    dyntaxa_id scientific_name taxon_kingdom taxon_phylum taxon_class taxon_order
    ##         <dbl> <chr>           <chr>         <chr>        <chr>       <chr>      
    ##  1     238225 Alexandrium ps… Chromista     Miozoa       Dinophyceae Gonyaulaca…
    ##  2     238302 Tripos fusus    Chromista     Miozoa       Dinophyceae Gonyaulaca…
    ##  3     238302 Tripos fusus    Chromista     Miozoa       Dinophyceae Gonyaulaca…
    ##  4     238307 Tripos lineatus Chromista     Miozoa       Dinophyceae Gonyaulaca…
    ##  5     238308 Tripos longipes Chromista     Miozoa       Dinophyceae Gonyaulaca…
    ##  6     238319 Tripos muelleri Chromista     Miozoa       Dinophyceae Gonyaulaca…
    ##  7    6018294 Chaetoceros so… Chromista     Gyrista      Mediophyce… Chaetocero…
    ##  8    5000054 Ciliophora      Chromista     Ciliophora   NA          NA         
    ##  9    5000054 Ciliophora      Chromista     Ciliophora   NA          NA         
    ## 10    4000164 Coscinodiscoph… Chromista     Gyrista      Coscinodis… NA         
    ## # ℹ 1,617 more rows
    ## # ℹ 4 more variables: taxon_family <chr>, taxon_genus <chr>,
    ## #   taxon_species <chr>, taxon_hierarchy <chr>
…
# Print the taxonomy table
print(taxonomy_table)
```

    ## # A tibble: 296 × 16
    ##    taxonId        acceptedNameUsageID parentNameUsageID scientificName taxonRank
    ##    <chr>          <chr>               <chr>             <chr>          <chr>    
    ##  1 urn:lsid:dynt… urn:lsid:dyntaxa.s… urn:lsid:dyntaxa… Scrippsiella   genus    
    ##  2 urn:lsid:dynt… urn:lsid:dyntaxa.s… urn:lsid:dyntaxa… Oblea          genus    
    ##  3 urn:lsid:dynt… urn:lsid:dyntaxa.s… urn:lsid:dyntaxa… Diatoma vulga… species  
    ##  4 urn:lsid:dynt… urn:lsid:dyntaxa.s… urn:lsid:dyntaxa… Pseudopediast… species  
    ##  5 urn:lsid:dynt… urn:lsid:dyntaxa.s… urn:lsid:dyntaxa… Dictyochales   order    
    ##  6 urn:lsid:dynt… urn:lsid:dyntaxa.s… urn:lsid:dyntaxa… Binuclearia l… species  
    ##  7 urn:lsid:dynt… urn:lsid:dyntaxa.s… urn:lsid:dyntaxa… Chrysotila ca… species  
    ##  8 urn:lsid:dynt… urn:lsid:dyntaxa.s… urn:lsid:dyntaxa… Bacillaria pa… species  
    ##  9 urn:lsid:dynt… urn:lsid:dyntaxa.s… urn:lsid:dyntaxa… Cuspidothrix … species  
    ## 10 urn:lsid:dynt… urn:lsid:dyntaxa.s… urn:lsid:dyntaxa… Protoperidini… species  
    ## # ℹ 286 more rows
    ## # ℹ 11 more variables: scientificNameAuthorship <chr>, taxonomicStatus <chr>,
    ## #   nomenclaturalStatus <chr>, taxonRemarks <chr>, kingdom <chr>, phylum <chr>,
    ## #   class <chr>, order <chr>, family <chr>, genus <chr>, species <chr>
…
