…
## Retrieve Complete Nordic Microalgae Taxon Table

A complete Nordic Microalgae taxa list can be retrieved through the API.

``` r
# Get taxa information
taxa <- get_nua_taxa(unparsed = FALSE)

# Print data
tibble(taxa)
```

    ## # A tibble: 6,860 × 5
    ##    scientific_name           authority                       rank  slug  nua_url
    ##    <chr>                     <chr>                           <chr> <chr> <chr>  
    ##  1 Abollifer                 Vørs, 1992                      Genus abol… https:…
    ##  2 Abollifer prolabens       Vørs, 1992                      Spec… abol… https:…
    ##  3 Acanthoceras              Honigm., 1910                   Genus acan… https:…
    ##  4 Acanthoceras zachariasii  (Brun) Simonsen, 1979           Spec… acan… https:…
    ##  5 Acanthocerataceae         Round, Crawford & Mann, 1990    Fami… acan… https:…
    ##  6 Acanthocorbis             S.Hara & E.Takahashi, 1984      Genus acan… https:…
    ##  7 Acanthocorbis apoda       (Leadbeater) Hara & Takahashi,… Spec… acan… https:…
    ##  8 Acanthocorbis asymmetrica (Thomsen) Hara & Takahashi, 19… Spec… acan… https:…
    ##  9 Acanthocorbis campanula   (Espeland) Thomsen, 1991        Spec… acan… https:…
    ## 10 Acanthocorbis haurakiana  Thomsen, 1991                   Spec… acan… https:…
    ## # ℹ 6,850 more rows
…
``` r
# Randomly select 10 taxa from shark_taxon$scientific_name
slugs <- sample(taxa$slug, size = 10)

# Get external links
external_links <- get_nua_external_links(slugs, 
                                         verbose = FALSE, 
                                         unparsed = FALSE)

# Print list
tibble(external_links)
```

    ## # A tibble: 52 × 6
    ##    slug                     provider  label  external_id external_url collection
    ##    <chr>                    <chr>     <chr>  <chr>       <chr>        <chr>     
    ##  1 pterosperma-vanhoeffenii AlgaeBase Algae… 56416       https://www… External …
    ##  2 pterosperma-vanhoeffenii Dyntaxa   Dynta… 238959      https://art… External …
    ##  3 pterosperma-vanhoeffenii GBIF      GBIF   2688130     https://www… External …
    ##  4 pterosperma-vanhoeffenii WoRMS     WoRMS  345881      https://www… External …
    ##  5 rosenvingiellopsis       AlgaeBase Algae… 52010       https://www… External …
    ##  6 rosenvingiellopsis       Dyntaxa   Dynta… 6046635     https://art… External …
    ##  7 rosenvingiellopsis       ENA       ENA    1936980     https://www… External …
    ##  8 rosenvingiellopsis       GBIF      GBIF   9916441     https://www… External …
    ##  9 rosenvingiellopsis       NCBI      NCBI   1936980     https://www… External …
    ## 10 rosenvingiellopsis       WoRMS     WoRMS  1312598     https://www… External …
    ## # ℹ 42 more rows
…
## Get Nordic Microalgae Media Links

Links to all images present on Nordic Microalgae can be retrieved
through the API. The images are available in four sizes: original (o),
small (s), medium (m), and large (l).

``` r
# Get all media links
media <- get_nua_media_links(unparsed = FALSE)

# Print list
tibble(media)
```

    ## # A tibble: 2,420 × 10
    ##    slug              image_l_url image_o_url image_s_url image_m_url contributor
    ##    <chr>             <chr>       <chr>       <chr>       <chr>       <chr>      
    ##  1 lennoxia-faveola… https://no… https://no… https://no… https://no… Maria Karl…
    ##  2 NA                https://no… https://no… https://no… https://no… Per Wilhel…
    ##  3 NA                https://no… https://no… https://no… https://no… Per Wilhel…
    ##  4 NA                https://no… https://no… https://no… https://no… Per Wilhel…
    ##  5 NA                https://no… https://no… https://no… https://no… Per Wilhel…
    ##  6 NA                https://no… https://no… https://no… https://no… Per Wilhel…
    ##  7 pleurosigma       https://no… https://no… https://no… https://no… Maria Karl…
    ##  8 NA                https://no… https://no… https://no… https://no… Per Wilhel…
    ##  9 NA                https://no… https://no… https://no… https://no… Per Wilhel…
    ## 10 NA                https://no… https://no… https://no… https://no… Per Wilhel…
    ## # ℹ 2,410 more rows
    ## # ℹ 4 more variables: photographer_artist <chr>, copyright_holder <chr>,
    ## #   license <chr>, galleries <chr>
…
``` r
# Get EG Phyto Biovolume list
peg_list <- get_peg_list()
```

    ## Reading PEG biovolume Excel file for year: 2025

``` r
# Print list
tibble(peg_list)
```

    ## # A tibble: 3,527 × 36
    ##    Division    Class Order Genus Species SFLAG STAGE Author AphiaID AphiaID_link
    ##    <chr>       <chr> <chr> <chr> <chr>   <chr> <chr> <chr>    <dbl> <chr>       
    ##  1 CYANOBACTE… Cyan… CHRO… Apha… Aphano… NA    NA    West …  146563 http://www.…
    ##  2 CYANOBACTE… Cyan… CHRO… Apha… Aphano… NA    NA    West …  146563 http://www.…
    ##  3 CYANOBACTE… Cyan… CHRO… Apha… Aphano… NA    NA    West …  146563 http://www.…
    ##  4 CYANOBACTE… Cyan… CHRO… Apha… Aphano… NA    NA    West …  146563 http://www.…
    ##  5 CYANOBACTE… Cyan… CHRO… Apha… Aphano… NA    NA    West …  146563 http://www.…
    ##  6 CYANOBACTE… Cyan… CHRO… Apha… Aphano… NA    NA    West …  146563 http://www.…
    ##  7 CYANOBACTE… Cyan… CHRO… Apha… Aphano… NA    NA    West …  146563 http://www.…
    ##  8 CYANOBACTE… Cyan… CHRO… Apha… Aphano… NA    NA    W. & …  146564 http://www.…
    ##  9 CYANOBACTE… Cyan… CHRO… Apha… Aphano… NA    NA    W. & …  146564 http://www.…
    ## 10 CYANOBACTE… Cyan… CHRO… Apha… Aphano… NA    NA    W. & …  146564 http://www.…
    ## # ℹ 3,517 more rows
    ## # ℹ 26 more variables: Trophy <chr>, Geometric_shape <chr>, FORMULA <chr>,
    ## #   SizeClassNo <dbl>, Nonvalid_SIZCL <lgl>, Not_accepted_name <lgl>,
    ## #   Unit <chr>, SizeRange <chr>, `Length(l1)µm` <dbl>, `Length(l2)µm` <dbl>,
    ## #   `Width(w)µm` <dbl>, `Height(h)µm` <dbl>, `Diameter(d1)µm` <dbl>,
    ## #   `Diameter(d2)µm` <dbl>, `No_of_cells/counting_unit` <dbl>,
    ## #   `Calculated_volume_µm3 (with formula) - NOT IMPORTED, NOT handled by ICES` <dbl>, …
``` r
# Get NOMP Biovolume list
nomp_list <- get_nomp_list()
```

    ## File for year 2025 not available. Trying previous year...

    ## File for year 2024 downloaded and cached.

``` r
# Print list
tibble(nomp_list)
```

    ## # A tibble: 3,846 × 39
    ##    List      `HELCOM area` `OSPAR area` Division Class Order Genus Species SFLAG
    ##    <chr>     <chr>         <chr>        <chr>    <chr> <chr> <chr> <chr>   <chr>
    ##  1 PEG_BVOL… x             NA           CYANOBA… Cyan… CHRO… Apha… Aphano… NA   
    ##  2 PEG_BVOL… x             NA           CYANOBA… Cyan… CHRO… Apha… Aphano… NA   
    ##  3 PEG_BVOL… x             NA           CYANOBA… Cyan… CHRO… Apha… Aphano… NA   
    ##  4 PEG_BVOL… x             NA           CYANOBA… Cyan… CHRO… Apha… Aphano… NA   
    ##  5 PEG_BVOL… x             NA           CYANOBA… Cyan… CHRO… Apha… Aphano… NA   
    ##  6 PEG_BVOL… x             NA           CYANOBA… Cyan… CHRO… Apha… Aphano… NA   
    ##  7 PEG_BVOL… x             NA           CYANOBA… Cyan… CHRO… Apha… Aphano… NA   
    ##  8 PEG_BVOL… x             NA           CYANOBA… Cyan… CHRO… Apha… Aphano… NA   
    ##  9 PEG_BVOL… x             NA           CYANOBA… Cyan… CHRO… Apha… Aphano… NA   
    ## 10 PEG_BVOL… x             NA           CYANOBA… Cyan… CHRO… Apha… Aphano… NA   
    ## # ℹ 3,836 more rows
    ## # ℹ 30 more variables: STAGE <chr>, Author <chr>, AphiaID <dbl>,
    ## #   AphiaID_link <chr>, Trophy <chr>, Geometric_shape <chr>, FORMULA <chr>,
    ## #   SizeClassNo <dbl>, Nonvalid_SIZCL <lgl>, Not_accepted_name <chr>,
    ## #   Unit <chr>, SizeRange <chr>, `Length(l1)µm` <dbl>, `Length(l2)µm` <dbl>,
    ## #   `Width(w)µm` <dbl>, `Height(h)µm` <dbl>, `Diameter(d1)µm` <dbl>,
    ## #   `Diameter(d2)µm` <dbl>, `No_of_cells/counting_unit` <dbl>, …
…
