Retrieve Data From Nordic Microalgae • SHARK4R
…
Retrieve Data Using SHARK4R

Retrieve Complete Nordic Microalgae Taxon Table

A complete Nordic Microalgae taxa list can be retrieved through the
API.

# Get taxa information
taxa <- get_nua_taxa(unparsed = FALSE)

# Print data
tibble(taxa)

## # A tibble: 6,852 × 5
##    scientific_name           authority                       rank  slug  nua_url
##    <chr>                     <chr>                           <chr> <chr> <chr>  
##  1 Abollifer                 Vørs, 1992                      Genus abol… https:…
##  2 Abollifer prolabens       Vørs, 1992                      Spec… abol… https:…
##  3 Acanthoceras              Honigm., 1910                   Genus acan… https:…
##  4 Acanthoceras zachariasii  (Brun) Simonsen, 1979           Spec… acan… https:…
##  5 Acanthocerataceae         Round, Crawford & Mann, 1990    Fami… acan… https:…
##  6 Acanthocorbis             S.Hara & E.Takahashi, 1984      Genus acan… https:…
##  7 Acanthocorbis apoda       (Leadbeater) Hara & Takahashi,… Spec… acan… https:…
##  8 Acanthocorbis asymmetrica (Thomsen) Hara & Takahashi, 19… Spec… acan… https:…
##  9 Acanthocorbis campanula   (Espeland) Thomsen, 1991        Spec… acan… https:…
## 10 Acanthocorbis haurakiana  Thomsen, 1991                   Spec… acan… https:…
## # ℹ 6,842 more rows
…
# Randomly select 10 taxa from shark_taxon$scientific_name
slugs <- sample(taxa$slug, size = 10)

# Get external links
external_links <- get_nua_external_links(slugs, 
                                         verbose = FALSE, 
                                         unparsed = FALSE)

# Print list
tibble(external_links)

## # A tibble: 47 × 6
##    slug               provider  label     external_id external_url    collection
##    <chr>              <chr>     <chr>     <chr>       <chr>           <chr>     
##  1 ptychocylis-urnula AlgaeBase AlgaeBase 141097      https://www.al… External …
##  2 ptychocylis-urnula Dyntaxa   Dyntaxa   238511      https://namnoc… External …
##  3 ptychocylis-urnula GBIF      GBIF      8138234     https://www.gb… External …
##  4 ptychocylis-urnula WoRMS     WoRMS     345883      https://www.ma… External …
##  5 ruthnielsenia      AlgaeBase AlgaeBase 47285       https://www.al… External …
##  6 ruthnielsenia      Dyntaxa   Dyntaxa   1008570     https://namnoc… External …
##  7 ruthnielsenia      ENA       ENA       262504      https://www.eb… External …
##  8 ruthnielsenia      GBIF      GBIF      2646125     https://www.gb… External …
##  9 ruthnielsenia      NCBI      NCBI      262504      https://www.nc… External …
## 10 ruthnielsenia      WoRMS     WoRMS     370184      https://www.ma… External …
## # ℹ 37 more rows
…
Get Nordic Microalgae Media Links

Links to all images present on Nordic Microalgae can be retrieved
through the API. The images are available in four sizes: original (o),
small (s), medium (m), and large (l).

# Get all media links
media <- get_nua_media_links(unparsed = FALSE)

# Print list
tibble(media)

## # A tibble: 2,411 × 10
##    slug              image_l_url image_o_url image_s_url image_m_url contributor
##    <chr>             <chr>       <chr>       <chr>       <chr>       <chr>      
##  1 eucampia-zodiacus https://no… https://no… https://no… https://no… Susanne Bu…
##  2 dinophysis-odiosa https://no… https://no… https://no… https://no… Susanne Bu…
##  3 ebria-tripartita  https://no… https://no… https://no… https://no… Susanne Bu…
##  4 ebria-tripartita  https://no… https://no… https://no… https://no… Susanne Bu…
##  5 ebria-tripartita  https://no… https://no… https://no… https://no… Susanne Bu…
##  6 ebria-tripartita  https://no… https://no… https://no… https://no… Susanne Bu…
##  7 dicroerisma-psil… https://no… https://no… https://no… https://no… Susanne Bu…
##  8 volvox            https://no… https://no… https://no… https://no… Per Wilhel…
##  9 cyclotella        https://no… https://no… https://no… https://no… Per Wilhel…
## 10 fragilaria        https://no… https://no… https://no… https://no… Per Wilhel…
## # ℹ 2,401 more rows
## # ℹ 4 more variables: photographer_artist <chr>, copyright_holder <chr>,
## #   license <chr>, galleries <chr>
…
