Retrieve Taxonomic Data From WoRMS • SHARK4R
…
# Subset the random sample
shark_data_subset <- shark_data %>%
  filter(shark_sample_id_md5 == sample)

# Assign groups by providing both scientific name and Aphia ID
plankton_groups <- assign_phytoplankton_group(
  scientific_names = shark_data_subset$scientific_name,
  aphia_ids = shark_data_subset$aphia_id,
  verbose = FALSE)

# Print result
tibble(distinct(plankton_groups))

## # A tibble: 51 × 2
##    scientific_name             plankton_group 
##    <chr>                       <chr>          
##  1 Akashiwo sanguinea          Dinoflagellates
##  2 Amphidinium                 Dinoflagellates
##  3 Amphidinium sphenoides      Dinoflagellates
##  4 Aphanizomenon               Cyanobacteria  
##  5 Aphanocapsa                 Cyanobacteria  
##  6 Aphanocapsa delicatissima   Cyanobacteria  
##  7 Aphanothece paralleliformis Cyanobacteria  
##  8 Attheya septentrionalis     Diatoms        
##  9 Cylindrotheca closterium    Diatoms        
## 10 Chaetoceros danicus         Diatoms        
## # ℹ 41 more rows
…
